Homework 3
…
Fe
Iron

With the last variable being Type of Glass with values of – 1 building_windows_float_processed, – 2 building_windows_non_float_processed, – 3 vehicle_windows_float_processed, – 4 vehicle_windows_non_float_processed (none in this database), – 5 containers, – 6 tableware, – 7 headlamps.

Read this data into R directly from the URL using functions from the tidyverse. Notice that the data doesn’t include column names - add those (in a manner of your choosing). Print out the tibble (just call the object name).

library(tidyverse)
beagle <- as_tibble(read.csv("https://www4.stat.ncsu.edu/~online/datasets/glass.data",
                             header = FALSE))|>
  rename("Id"=1,"RI"=2,"Na"=3,"Mg"=4,"Al"=5,"Si"=6,"K"=7,"Ca"=8,"Ba"=9,"Fe"=10, "Type_of_Glass"= 11)
beagle

# A tibble: 214 × 11
      Id    RI    Na    Mg    Al    Si     K    Ca    Ba    Fe Type_of_Glass
   <int> <dbl> <dbl> <dbl> <dbl> <dbl> <dbl> <dbl> <dbl> <dbl>         <int>
 1     1  1.52  13.6  4.49  1.1   71.8  0.06  8.75     0  0                1
 2     2  1.52  13.9  3.6   1.36  72.7  0.48  7.83     0  0                1
 3     3  1.52  13.5  3.55  1.54  73.0  0.39  7.78     0  0                1
 4     4  1.52  13.2  3.69  1.29  72.6  0.57  8.22     0  0                1
 5     5  1.52  13.3  3.62  1.24  73.1  0.55  8.07     0  0                1
 6     6  1.52  12.8  3.61  1.62  73.0  0.64  8.07     0  0.26             1
 7     7  1.52  13.3  3.6   1.14  73.1  0.58  8.17     0  0                1
 8     8  1.52  13.2  3.61  1.05  73.2  0.57  8.24     0  0                1
 9     9  1.52  14.0  3.58  1.37  72.1  0.56  8.3      0  0                1
10    10  1.52  13    3.6   1.36  73.0  0.57  8.4      0  0.11             1
# ℹ 204 more rows
…
yeast <- as.tibble(read_table("https://www4.stat.ncsu.edu/~online/datasets/yeast.data",
                              col_names = FALSE))|>
  rename("seq_name" = 1,
         "mcg" = 2,
         "gvh" = 3,
         "alm" = 4,
         "mit" = 5,
         "erl" = 6,
         "pox" = 7,
         "vac" = 8,
         "nuc" = 9,
         "class"= 10)
yeast

# A tibble: 1,484 × 10
   seq_name     mcg   gvh   alm   mit   erl   pox   vac   nuc class
   <chr>      <dbl> <dbl> <dbl> <dbl> <dbl> <dbl> <dbl> <dbl> <chr>
 1 ADT1_YEAST  0.58  0.61  0.47  0.13   0.5   0    0.48  0.22 MIT  
 2 ADT2_YEAST  0.43  0.67  0.48  0.27   0.5   0    0.53  0.22 MIT  
 3 ADT3_YEAST  0.64  0.62  0.49  0.15   0.5   0    0.53  0.22 MIT  
 4 AAR2_YEAST  0.58  0.44  0.57  0.13   0.5   0    0.54  0.22 NUC  
 5 AATM_YEAST  0.42  0.44  0.48  0.54   0.5   0    0.48  0.22 MIT  
 6 AATC_YEAST  0.51  0.4   0.56  0.17   0.5   0.5  0.49  0.22 CYT  
 7 ABC1_YEAST  0.5   0.54  0.48  0.65   0.5   0    0.53  0.22 MIT  
 8 BAF1_YEAST  0.48  0.45  0.59  0.2    0.5   0    0.58  0.34 NUC  
 9 ABF2_YEAST  0.55  0.5   0.66  0.36   0.5   0    0.49  0.22 MIT  
10 ABP1_YEAST  0.4   0.39  0.6   0.15   0.5   0    0.58  0.3  CYT  
# ℹ 1,474 more rows

Start a chain that removes the seq_name and nuc columns.

Continue your chain to add columns corresponding to the mean and median of each numeric variable (mcg, gvh, alm, mit, erl, pox, and vac) at each class grouping (see the across() function as we did in the dplyr video!).

yeast <- yeast |>
  select(-c(seq_name, nuc))|>
  mutate(across(1:7,list(mean = mean, median = median), .names = "{.fn}_{.col}"))|>
  print()

# A tibble: 1,484 × 22
     mcg   gvh   alm   mit   erl   pox   vac class mean_mcg median_mcg mean_gvh
   <dbl> <dbl> <dbl> <dbl> <dbl> <dbl> <dbl> <chr>    <dbl>      <dbl>    <dbl>
 1  0.58  0.61  0.47  0.13   0.5   0    0.48 MIT      0.500       0.49    0.500
 2  0.43  0.67  0.48  0.27   0.5   0    0.53 MIT      0.500       0.49    0.500
 3  0.64  0.62  0.49  0.15   0.5   0    0.53 MIT      0.500       0.49    0.500
 4  0.58  0.44  0.57  0.13   0.5   0    0.54 NUC      0.500       0.49    0.500
 5  0.42  0.44  0.48  0.54   0.5   0    0.48 MIT      0.500       0.49    0.500
 6  0.51  0.4   0.56  0.17   0.5   0.5  0.49 CYT      0.500       0.49    0.500
 7  0.5   0.54  0.48  0.65   0.5   0    0.53 MIT      0.500       0.49    0.500
 8  0.48  0.45  0.59  0.2    0.5   0    0.58 NUC      0.500       0.49    0.500
 9  0.55  0.5   0.66  0.36   0.5   0    0.49 MIT      0.500       0.49    0.500
10  0.4   0.39  0.6   0.15   0.5   0    0.58 CYT      0.500       0.49    0.500
# ℹ 1,474 more rows
# ℹ 11 more variables: median_gvh <dbl>, mean_alm <dbl>, median_alm <dbl>,
#   mean_mit <dbl>, median_mit <dbl>, mean_erl <dbl>, median_erl <dbl>,
#   mean_pox <dbl>, median_pox <dbl>, mean_vac <dbl>, median_vac <dbl>
…
      - Download this file

      - Place it in a folder you know (such as your working directory for your project)

      - Import the data from the first sheet using the readxl package

      - Print out the tibble (just call the object name)

library(readxl)
white_wine <- as.tibble(read_excel("data/white-wine.xlsx",
           sheet = excel_sheets("data/white-wine.xlsx")[1]))
white_wine

# A tibble: 4,898 × 12
   `fixed acidity` `volatile acidity` `citric acid` `residual sugar` chlorides
             <dbl>              <dbl>         <dbl>            <dbl>     <dbl>
 1               7               0.27          0.36             20.7     0.045
 2              63               0.3           0.34              1.6     0.049
 3              81               0.28          0.4               6.9     0.05 
 4              72               0.23          0.32              8.5     0.058
 5              72               0.23          0.32              8.5     0.058
 6              81               0.28          0.4               6.9     0.05 
 7              62               0.32          0.16              7       0.045
 8               7               0.27          0.36             20.7     0.045
 9              63               0.3           0.34              1.6     0.049
10              81               0.22          0.43              1.5     0.044
# ℹ 4,888 more rows
# ℹ 7 more variables: `free sulfur dioxide` <dbl>,
#   `total sulfur dioxide` <dbl>, density <dbl>, pH <dbl>, sulphates <dbl>,
#   alcohol <dbl>, quality <dbl>

When you print the data set out to the console, you may notice that some of the variable names are surrounded by backticks. This is because they are non-standard (they include a space in them). We can rename them in a number of ways. We’ll do it by reading in the variable names from the 2nd sheet of the same file.

      - Read in the data from the 2nd sheet. This should return a data frame with one column containing alternative versions of the variable names.

      - Grab that column and overwrite the current column names (colnames()) of your white wine tibble.

white_wine_names <- read_excel("data/white-wine.xlsx",
                               sheet = excel_sheets("data/white-wine.xlsx")[2])

colnames(white_wine) <- pull(white_wine_names,1)

white_wine

# A tibble: 4,898 × 12
   fixed_acidity volatile_acidity citric_acid residual_sugar chlorides
           <dbl>            <dbl>       <dbl>          <dbl>     <dbl>
 1             7             0.27        0.36           20.7     0.045
 2            63             0.3         0.34            1.6     0.049
 3            81             0.28        0.4             6.9     0.05 
 4            72             0.23        0.32            8.5     0.058
 5            72             0.23        0.32            8.5     0.058
 6            81             0.28        0.4             6.9     0.05 
 7            62             0.32        0.16            7       0.045
 8             7             0.27        0.36           20.7     0.045
 9            63             0.3         0.34            1.6     0.049
10            81             0.22        0.43            1.5     0.044
# ℹ 4,888 more rows
# ℹ 7 more variables: free_sulfur_dioxide <dbl>, total_sulfur_dioxide <dbl>,
#   density <dbl>, pH <dbl>, sulphates <dbl>, alcohol <dbl>, quality <dbl>
…
Read this in using the readr package. Be careful that the columns are read in as the correct type!

You should replace the variable names as done above

You should append a column denoting the type as “red”

red_wine<- read_delim("https://www4.stat.ncsu.edu/~online/datasets/red-wine.csv",
                      delim = ";")
colnames(red_wine)<- pull(white_wine_names,1)
red_wine<- red_wine|>
  mutate("Type" = "red")
red_wine

# A tibble: 1,599 × 13
   fixed_acidity volatile_acidity citric_acid residual_sugar chlorides
           <dbl>            <dbl>       <dbl>          <dbl>     <dbl>
 1           7.4             0.7         0               1.9     0.076
 2           7.8             0.88        0               2.6     0.098
 3           7.8             0.76        0.04            2.3     0.092
 4          11.2             0.28        0.56            1.9     0.075
 5           7.4             0.7         0               1.9     0.076
 6           7.4             0.66        0               1.8     0.075
 7           7.9             0.6         0.06            1.6     0.069
 8           7.3             0.65        0               1.2     0.065
 9           7.8             0.58        0.02            2       0.073
10           7.5             0.5         0.36            6.1     0.071
# ℹ 1,589 more rows
# ℹ 8 more variables: free_sulfur_dioxide <dbl>, total_sulfur_dioxide <dbl>,
#   density <dbl>, pH <dbl>, sulphates <dbl>, alcohol <dbl>, quality <dbl>,
#   Type <chr>

Combine these two data sets into one data set. They both have the exact same columns so this is an easy append task!

      - Use the dplyr::bind_rows() function (see the help) to create one tibble containing all of the wine data.

wine_data <- bind_rows(white_wine,red_wine)
wine_data

# A tibble: 6,497 × 13
   fixed_acidity volatile_acidity citric_acid residual_sugar chlorides
           <dbl>            <dbl>       <dbl>          <dbl>     <dbl>
 1             7             0.27        0.36           20.7     0.045
 2            63             0.3         0.34            1.6     0.049
 3            81             0.28        0.4             6.9     0.05 
 4            72             0.23        0.32            8.5     0.058
 5            72             0.23        0.32            8.5     0.058
 6            81             0.28        0.4             6.9     0.05 
 7            62             0.32        0.16            7       0.045
 8             7             0.27        0.36           20.7     0.045
 9            63             0.3         0.34            1.6     0.049
10            81             0.22        0.43            1.5     0.044
# ℹ 6,487 more rows
# ℹ 8 more variables: free_sulfur_dioxide <dbl>, total_sulfur_dioxide <dbl>,
#   density <dbl>, pH <dbl>, sulphates <dbl>, alcohol <dbl>, quality <dbl>,
#   Type <chr>
…
Either use dplyr or write SQL queries for the rest of these questions!

Return all of the players in the hall of fame, the year they were voted into the hall of fame, and their category (only those three variables!). See the HallOfFame table, the inducted variable is important here.

Hall_of_Fame <- as_tibble(tbl(con, "HallofFame"))|>
  filter(inducted == "Y")|>
  select(playerID, yearID, category)

Hall_of_Fame

# A tibble: 340 × 3
   playerID  yearID category         
   <chr>      <int> <chr>            
 1 cobbty01    1936 Player           
 2 ruthba01    1936 Player           
 3 wagneho01   1936 Player           
 4 mathech01   1936 Player           
 5 johnswa01   1936 Player           
 6 lajoina01   1937 Player           
 7 speaktr01   1937 Player           
 8 youngcy01   1937 Player           
 9 bulkemo99   1937 Pioneer/Executive
10 johnsba99   1937 Pioneer/Executive
# ℹ 330 more rows

Combine the table from the previous question with the People table in order to have the nameFirst and nameLast names added to what was returned above.

people <- as_tibble(tbl(con, "People"))|>
  select(nameFirst,nameLast,playerID)
new_HoF <- right_join(people,Hall_of_Fame,by = "playerID")
new_HoF

# A tibble: 340 × 5
   nameFirst nameLast  playerID  yearID category
   <chr>     <chr>     <chr>      <int> <chr>   
 1 Hank      Aaron     aaronha01   1982 Player  
 2 Pete      Alexander alexape01   1938 Player  
 3 Roberto   Alomar    alomaro01   2011 Player  
 4 Walter    Alston    alstowa01   1983 Manager 
 5 Sparky    Anderson  andersp01   2000 Manager 
 6 Cap       Anson     ansonca01   1939 Player  
 7 Luis      Aparicio  aparilu01   1984 Player  
 8 Luke      Appling   applilu01   1964 Player  
 9 Richie    Ashburn   ashburi01   1995 Player  
10 Earl      Averill   averiea01   1975 Player  
# ℹ 330 more rows
…
Sort the resulting data by the win/loss percentage variable (from largest to smallest).

manager <- as_tibble(tbl(con, "Managers"))|>
  select(playerID, G, W, L)|>
  group_by(playerID)|>
  summarize(G_managed = sum(G, na.rm = TRUE),
            Total_W = sum(W, na.rm = TRUE),
            Total_L = sum(L, na.rm = TRUE))|>
  collect()|>
  mutate("Win_Loss_Percentage" = Total_W / G_managed)|>
  arrange(desc(Win_Loss_Percentage))

manager

# A tibble: 749 × 5
   playerID  G_managed Total_W Total_L Win_Loss_Percentage
   <chr>         <int>   <int>   <int>               <dbl>
 1 bensove01         1       1       0                   1
 2 burwebi01         1       1       0                   1
 3 cohenan01         1       1       0                   1
 4 ebeldi99          3       3       0                   1
 5 falkbi01          1       1       0                   1
 6 hardeme01         3       3       0                   1
 7 simmote01         1       1       0                   1
 8 steinte01         2       2       0                   1
 9 sukefcl01         2       2       0                   1
10 tamarjo01         1       1       0                   1
# ℹ 739 more rows

Use the results from the previous two questions to answer this one! Return information for only the people that managed a team and were inducted into the hall of fame (regardless of their category in the hall of fame - you want to return all people in the hall of fame that ever managed at all). (Just return all of the variables from both of the above two questions - 9 total columns)

HoF_managers <- right_join(new_HoF, manager, by = "playerID")
HoF_managers

# A tibble: 749 × 9
   nameFirst nameLast  playerID  yearID category       G_managed Total_W Total_L
   <chr>     <chr>     <chr>      <int> <chr>              <int>   <int>   <int>
 1 Walter    Alston    alstowa01   1983 Manager             3658    2040    1613
 2 Sparky    Anderson  andersp01   2000 Manager             4030    2194    1834
 3 Cap       Anson     ansonca01   1939 Player              2288    1296     947
 4 Luke      Appling   applilu01   1964 Player                40      10      30
 5 Harold    Baines    baineha01   2019 Player                 4       1       3
 6 Dave      Bancroft  bancrda01   1971 Player               615     249     363
 7 Ed        Barrow    barroed99   1953 Pioneer/Execu…       639     310     320
 8 Yogi      Berra     berrayo01   1972 Player               930     484     444
 9 Jim       Bottomley bottoji01   1974 Player                78      21      56
10 Lou       Boudreau  boudrlo01   1970 Player              2404    1162    1224
# ℹ 739 more rows
# ℹ 1 more variable: Win_Loss_Percentage <dbl>
